[gd_scene load_steps=2 format=2]

[ext_resource path="res://ui/health_status/health_status.gd" type="Script" id=1]

[node name="health_status" type="Node2D"]

script = ExtResource( 1 )
health = 3
max_health = 5


